<?xml version="1.0" encoding="UTF-8"?>
<svg width="450px" height="50px" viewBox="0 0 450 50" version="1.1" xmlns="http://www.w3.org/2000/svg" xmlns:xlink="http://www.w3.org/1999/xlink">
    <g id="Page-1" stroke="none" stroke-width="1" fill="none" fill-rule="evenodd">
        <g id="bar" fill="#DDDDDD">
            <path d="M25,0 L170,0 L130,50 L25,50 C11.1928813,50 1.69088438e-15,38.8071187 0,25 L0,25 C-1.69088438e-15,11.1928813 11.1928813,2.53632657e-15 25,0 Z" id="Rectangle"></path>
            <polygon id="Rectangle-2" points="170 0 320 0 280 50 130 50"></polygon>
            <path d="M305,2.84217094e-14 L450,2.84217094e-14 L410,50 L305,50 C291.192881,50 280,38.8071187 280,25 L280,25 C280,11.1928813 291.192881,3.0958036e-14 305,2.84217094e-14 Z" id="Rectangle-Copy" transform="translate(365.000000, 25.000000) rotate(-180.000000) translate(-365.000000, -25.000000) "></path>
        </g>
    </g>
</svg>