<?xml version="1.0" encoding="UTF-8"?>
<svg width="622px" height="609px" viewBox="0 0 622 609" version="1.1" xmlns="http://www.w3.org/2000/svg" xmlns:xlink="http://www.w3.org/1999/xlink">
    <!-- Generator: Sketch 48.2 (47327) - http://www.bohemiancoding.com/sketch -->
    <title>undraw_gift1_sgf8</title>
    <desc>Created with Sketch.</desc>
    <defs>
        <linearGradient x1="50.0001583%" y1="100.00015%" x2="50.0001583%" y2="0.0041204196%" id="linearGradient-1">
            <stop stop-color="#808080" stop-opacity="0.25" offset="0%"></stop>
            <stop stop-color="#808080" stop-opacity="0.12" offset="54%"></stop>
            <stop stop-color="#808080" stop-opacity="0.1" offset="100%"></stop>
        </linearGradient>
        <linearGradient x1="42004%" y1="80461%" x2="42004%" y2="32021%" id="linearGradient-2">
            <stop stop-color="#808080" stop-opacity="0.25" offset="0%"></stop>
            <stop stop-color="#808080" stop-opacity="0.12" offset="54%"></stop>
            <stop stop-color="#808080" stop-opacity="0.1" offset="100%"></stop>
        </linearGradient>
    </defs>
    <g id="Page-1" stroke="none" stroke-width="1" fill="none" fill-rule="evenodd">
        <g id="undraw_gift1_sgf8" fill-rule="nonzero">
            <g id="Group" opacity="0.5" transform="translate(178.000000, 0.000000)" fill="url(#linearGradient-1)">
                <path d="M257.54,18.07 C244.64,5.13 225.83,-0.02 204.54,3.57 C184.65,6.93 164.75,17.7 148.54,33.9 C143.837118,38.6317666 139.884844,44.0543405 136.82,49.98 C133.834564,43.8573813 129.914305,38.2367689 125.2,33.32 C109.2,16.85 89.53,5.74 69.7,2.03 C48.51,-1.97 29.62,2.89 16.5,15.61 C3.38,28.33 -2.05,47.06 1.25,68.32 C4.33,88.32 14.77,108.32 30.77,124.81 C64.35,159.45 131.36,145.92 134.2,145.32 L135.04,145.15 L137.62,145.74 C140.45,146.38 207.21,161.06 241.37,127.01 C257.62,110.82 268.45,90.95 271.88,71.07 C275.53,49.84 270.44,31.01 257.54,18.07 Z M122.85,125.32 C106.66,127.5 66.3,130.46 46.26,109.79 C33.38,96.5 24.95,80.6 22.55,65.04 C20.35,50.84 23.55,38.77 31.49,31.04 C34.6046984,28.0482618 38.3299617,25.7660263 42.41,24.35 C49.09,21.98 57.04,21.54 65.73,23.17 C81.21,26.06 96.83,34.98 109.73,48.27 C129.77,68.99 125.53,109.24 122.85,125.32 Z M250.63,67.39 C247.96,82.91 239.26,98.65 226.15,111.72 C205.75,132.05 165.45,128.39 149.31,125.93 C146.9,109.77 143.37,69.46 163.76,49.13 C176.87,36.06 192.64,27.42 208.17,24.79 C216.89,23.32 224.83,23.89 231.47,26.37 C235.524179,27.8573487 239.20849,30.2043916 242.27,33.25 C250.1,41.14 253.07,53.26 250.63,67.41 L250.63,67.39 Z" id="Shape"></path>
            </g>
            <path d="M318.68,140.97 L312.3,142.32 C309.59,142.89 245.47,155.83 213.3,122.69 C198.02,106.93 187.99,87.74 185.04,68.69 C181.89,48.31 187.04,30.38 199.62,18.21 C212.2,6.04 230.26,1.43 250.53,5.21 C269.53,8.76 288.37,19.39 303.64,35.15 C335.76,68.3 320.82,131.98 320.16,134.67 L318.68,140.97 Z M224.47,26.58 C220.565726,27.9344218 217.000803,30.1177238 214.02,32.98 C206.4,40.36 203.36,51.91 205.46,65.5 C207.76,80.39 215.82,95.6 228.15,108.32 C247.32,128.1 285.94,125.32 301.43,123.18 C304,107.77 308.04,69.25 288.87,49.47 C276.54,36.75 261.59,28.22 246.78,25.47 C238.48,23.89 230.87,24.32 224.47,26.58 Z" id="Shape" fill="#38D39F"></path>
            <path d="M309.22,141.25 L307.77,134.89 C307.16,132.18 293.32,68.25 326.01,35.67 C341.55,20.17 360.6,9.87 379.63,6.67 C399.96,3.23 417.96,8.16 430.31,20.54 C442.66,32.92 447.52,50.94 444.02,71.26 C440.74,90.26 430.37,109.26 414.83,124.79 C382.16,157.32 318.28,143.32 315.57,142.7 L309.22,141.25 Z M405.39,28.5 C399.03,26.12 391.39,25.57 383.1,26.98 C368.24,29.49 353.1,37.76 340.6,50.27 C321.09,69.72 324.46,108.27 326.77,123.76 C342.22,126.11 380.77,129.62 400.3,110.16 C412.85,97.65 421.17,82.59 423.73,67.74 C426.07,54.19 423.23,42.59 415.73,35.08 C412.795611,32.1650336 409.264661,29.9202365 405.38,28.5 L405.39,28.5 Z" id="Shape" fill="#38D39F"></path>
            <g id="Group" opacity="0.5" transform="translate(0.000000, 124.000000)" fill="url(#linearGradient-2)">
                <polygon id="Shape" points="621.87 0.21 0.21 0.21 0.21 124.6 32.51 124.6 32.51 484.61 589.57 484.61 589.57 124.6 621.87 124.6"></polygon>
            </g>
            <rect id="Rectangle-path" fill="#F5F5F5" x="39.56" y="161.82" width="542.96" height="440.67"></rect>
            <rect id="Rectangle-path" fill="#38D39F" x="259.89" y="240.51" width="102.3" height="361.98"></rect>
            <rect id="Rectangle-path" fill="#000000" opacity="0.1" x="39.56" y="138.21" width="542.96" height="110.17"></rect>
            <rect id="Rectangle-path" fill="#F5F5F5" x="8.08" y="130.34" width="605.91" height="110.17"></rect>
            <rect id="Rectangle-path" fill="#38D39F" x="259.89" y="130.34" width="102.3" height="110.17"></rect>
        </g>
    </g>
</svg>