<?xml version="1.0" encoding="UTF-8"?>
<svg width="170px" height="50px" viewBox="0 0 170 50" version="1.1" xmlns="http://www.w3.org/2000/svg" xmlns:xlink="http://www.w3.org/1999/xlink">
    <g id="Page-1" stroke="none" stroke-width="1" fill="none" fill-rule="evenodd">
        <g id="right" fill="#DDDDDD">
            <path d="M25,1.42108547e-14 L170,1.42108547e-14 L130,50 L25,50 C11.1928813,50 1.69088438e-15,38.8071187 0,25 L0,25 C-1.69088438e-15,11.1928813 11.1928813,1.67471813e-14 25,1.42108547e-14 Z" id="Rectangle-Copy" transform="translate(85.000000, 25.000000) rotate(-180.000000) translate(-85.000000, -25.000000) "></path>
        </g>
    </g>
</svg>